{
    "annotations": {
      "list": [
        {
          "builtIn": 1,
          "datasource": "-- Grafana --",
          "enable": true,
          "hide": true,
          "iconColor": "rgba(0, 211, 255, 1)",
          "name": "Annotations & Alerts",
          "type": "dashboard"
        }
      ]
    },
    "editable": true,
    "gnetId": null,
    "graphTooltip": 0,
    "id": 2,
    "links": [],
    "panels": [
      {
        "cards": {
          "cardPadding": null,
          "cardRound": null
        },
        "color": {
          "cardColor": "#b4ff00",
          "colorScale": "sqrt",
          "colorScheme": "interpolateBlues",
          "exponent": 0.5,
          "mode": "spectrum"
        },
        "dataFormat": "timeseries",
        "datasource": null,
        "gridPos": {
          "h": 7,
          "w": 24,
          "x": 0,
          "y": 0
        },
        "heatmap": {},
        "hideZeroBuckets": false,
        "highlightCards": true,
        "id": 2,
        "legend": {
          "show": false
        },
        "reverseYBuckets": false,
        "targets": [
          {
            "refId": "A",
            "target": "alias(scale(stats.timers.buildgrid.instance.cleanup.runtime-timer.mean, 0.001), 'Cleanup Runtime (seconds)')"
          }
        ],
        "timeFrom": null,
        "timeShift": null,
        "title": "Cleanup runtime",
        "tooltip": {
          "show": true,
          "showHistogram": false
        },
        "type": "heatmap",
        "xAxis": {
          "show": true
        },
        "xBucketNumber": null,
        "xBucketSize": "5m",
        "yAxis": {
          "decimals": null,
          "format": "s",
          "logBase": 1,
          "max": "30",
          "min": "0",
          "show": true,
          "splitFactor": null
        },
        "yBucketBound": "auto",
        "yBucketNumber": null,
        "yBucketSize": 2
      },
      {
        "cards": {
          "cardPadding": null,
          "cardRound": null
        },
        "color": {
          "cardColor": "#b4ff00",
          "colorScale": "sqrt",
          "colorScheme": "interpolateBlues",
          "exponent": 0.5,
          "mode": "spectrum"
        },
        "dataFormat": "timeseries",
        "datasource": null,
        "gridPos": {
          "h": 7,
          "w": 8,
          "x": 0,
          "y": 7
        },
        "heatmap": {},
        "hideZeroBuckets": false,
        "highlightCards": true,
        "id": 4,
        "legend": {
          "show": false
        },
        "reverseYBuckets": false,
        "targets": [
          {
            "refId": "A",
            "target": "stats.timers.buildgrid.instance.cleanup.index.mark-as-deleted-timer.mean"
          }
        ],
        "timeFrom": null,
        "timeShift": null,
        "title": "Mark as deleted duration",
        "tooltip": {
          "show": true,
          "showHistogram": false
        },
        "type": "heatmap",
        "xAxis": {
          "show": true
        },
        "xBucketNumber": null,
        "xBucketSize": "5m",
        "yAxis": {
          "decimals": null,
          "format": "ms",
          "logBase": 1,
          "max": "100",
          "min": "0",
          "show": true,
          "splitFactor": null
        },
        "yBucketBound": "auto",
        "yBucketNumber": null,
        "yBucketSize": 10
      },
      {
        "cards": {
          "cardPadding": null,
          "cardRound": null
        },
        "color": {
          "cardColor": "#b4ff00",
          "colorScale": "sqrt",
          "colorScheme": "interpolateBlues",
          "exponent": 0.5,
          "mode": "spectrum"
        },
        "dataFormat": "timeseries",
        "datasource": null,
        "gridPos": {
          "h": 7,
          "w": 8,
          "x": 8,
          "y": 7
        },
        "heatmap": {},
        "hideZeroBuckets": false,
        "highlightCards": true,
        "id": 6,
        "legend": {
          "show": false
        },
        "reverseYBuckets": false,
        "targets": [
          {
            "refId": "A",
            "target": "stats.timers.buildgrid.instance.cleanup.storage.bulk-delete-timer.mean"
          }
        ],
        "timeFrom": null,
        "timeShift": null,
        "title": "S3 Bulk Delete duration",
        "tooltip": {
          "show": true,
          "showHistogram": false
        },
        "type": "heatmap",
        "xAxis": {
          "show": true
        },
        "xBucketNumber": null,
        "xBucketSize": "5m",
        "yAxis": {
          "decimals": null,
          "format": "ms",
          "logBase": 1,
          "max": "100",
          "min": "0",
          "show": true,
          "splitFactor": null
        },
        "yBucketBound": "auto",
        "yBucketNumber": null,
        "yBucketSize": 10
      },
      {
        "cards": {
          "cardPadding": null,
          "cardRound": null
        },
        "color": {
          "cardColor": "#b4ff00",
          "colorScale": "sqrt",
          "colorScheme": "interpolateBlues",
          "exponent": 0.5,
          "mode": "spectrum"
        },
        "dataFormat": "timeseries",
        "datasource": null,
        "gridPos": {
          "h": 7,
          "w": 8,
          "x": 16,
          "y": 7
        },
        "heatmap": {},
        "hideZeroBuckets": false,
        "highlightCards": true,
        "id": 5,
        "legend": {
          "show": false
        },
        "reverseYBuckets": false,
        "targets": [
          {
            "refId": "A",
            "target": "stats.timers.buildgrid.instance.cleanup.index.bulk-delete-timer.mean"
          }
        ],
        "timeFrom": null,
        "timeShift": null,
        "title": "Index Bulk Delete duration",
        "tooltip": {
          "show": true,
          "showHistogram": false
        },
        "type": "heatmap",
        "xAxis": {
          "show": true
        },
        "xBucketNumber": null,
        "xBucketSize": "5m",
        "yAxis": {
          "decimals": null,
          "format": "ms",
          "logBase": 1,
          "max": "100",
          "min": "0",
          "show": true,
          "splitFactor": null
        },
        "yBucketBound": "auto",
        "yBucketNumber": null,
        "yBucketSize": 10
      }
    ],
    "schemaVersion": 22,
    "style": "dark",
    "tags": [],
    "templating": {
      "list": []
    },
    "time": {
      "from": "now-3h",
      "to": "now"
    },
    "timepicker": {
      "refresh_intervals": [
        "5s",
        "10s",
        "30s",
        "1m",
        "5m",
        "15m",
        "30m",
        "1h",
        "2h",
        "1d"
      ]
    },
    "timezone": "",
    "title": "BuildGrid Cleanup",
    "uid": "L8M-U76Zk",
    "variables": {
      "list": []
    },
    "version": 2
  }